{
  "contacts": [
    {
      "name": "Alex Hirsch",
      "phone": "250-178",
      "sex": "M"
    },
    {
      "name": "Nellie P",
      "phone": "360-201",
      "sex": "F"
    },
    {
      "name": "Karen G",
      "phone": "208-631",
      "sex": "F"
    },
    {
      "name": "Preston C",
      "phone": "314-258",
      "sex": "M"
    },
    {
      "name": "Janice W",
      "phone": "295-512",
      "sex": "F"
    },
    {
      "name": "Doris N",
      "phone": "682-334",
      "sex": "F"
    },
    {
      "name": "Victor M",
      "phone": "949-864",
      "sex": "M"
    },
    {
      "name": "Michael T",
      "phone": "718-387",
      "sex": "M"
    },
    {
      "name": "Johnny C",
      "phone": "478-361",
      "sex": "M"
    },
    {
      "name": "Norma M",
      "phone": "361-219",
      "sex": "T"
    },
    {
      "name": "Brian L",
      "phone": "904-705",
      "sex": "T"
    },
    {
      "name": "Enrique L",
      "phone": "617-829",
      "sex": "T"
    }
  ]
}